{ 
	"links": [
			{
				"id": 1,
				"name": "Creations",
				"to": "scrollLink1"
			},
			{
				"id": 2,
				"name": "About",
				"to": "scrollLink2"
			},
			{
				"id": 3,
				"name": "Design",
				"to": "scrollLink3"
			},
			{
				"id": 4,
				"name": "Development",
				"to": "scrollLink4"
			},
			{
				"id": 5,
				"name": "Digital",
				"to": "scrollLink5"
			},
			{
				"id": 6,
				"name": "Consulting",
				"to": "scrollLink6"
			},
			{
				"id": 7,
				"name": "Connect",
				"to": "scrollLink7"
			}
	]
}
  