{
	"about" : [
				{
					"id": 1,
				    "to" : "/page",
					"name": "Vision and Mission"
				},
				{
					"id": 2,
				    "to" : "/page",
					"name": "Methodology and Strategies"
				},
				{
					"id": 3,
				    "to" : "/page",
					"name": "Awards and Achievements"
				},
				{
					"id": 4,
				    "to" : "/page",
					"name": "Team and Expertise"
				},
				{
					"id": 5,
				    "to" : "/page",
					"name": "Join Our Team"
				},
				{
					"id": 6,
				    "to" : "/page",
					"name": "News and Events"
				},
				{
				    "id": 7,
				    "to" : "/page",
				    "name": "Client Successes"
			  	}
	],
	"portfolio" : [
				{
				  "id": 1,
				  "to" : "/page",
				  "name": "eCommerce"
				},
				{
				  "id": 2,
				  "to" : "/page",
				  "name": "Corporate Websites"
				},
				{
				  "id": 3,
				  "to" : "/page",
				  "name": "Web and Mobile Applications"
				},
				{
				  "id": 4,
				  "to" : "/page",
				  "name": "Logos and Brochures"
				},
				{
				  "id": 5,
				  "to" : "/page",
				  "name": "Case Studies"
				},
				{
				  "id": 6,
				  "to" : "/page",
				  "name": "Let's discuss your requirements"
				}
			],
	"webDesign" : [
				{
				  "id": 1,
				  "to" : "/page",
				  "name": "eCommerce Websites"
				},
				{
				  "id": 2,
				  "to" : "/page",
				  "name": "Corporate Websites"
				},
				{
				  "id": 3,
				  "to" : "/page",
				  "name": "Web and Mobile Applications"
				},
				{
				  "id": 4,
				  "to" : "/page",
				  "name": "Blogs and Portals"
				},
				{
				  "id": 5,
				  "to" : "/page",
				  "name": "Logos and Brochures"
				},
				{
				  "id": 6,
				  "to" : "/page",
				  "name": "Let's discuss your requirements"
				}
			  ],
	"webDevelopment" : [
				{
				  "id": 1,
				  "to" : "/page",
				  "name": "eCommerce Websites"
				},
				{
				  "id": 2,
				  "to" : "/page",
				  "name": "Corporate Websites"
				},
				{
				  "id": 3,
				  "to" : "/page",
				  "name": "Web and Mobile Applications"
				},
				{
				  "id": 4,
				  "to" : "/page",
				  "name": "Web Portals"
				},
				{
				  "id": 5,
				  "to" : "/page",
				  "name": "Let's discuss your requirements"
				}
			  ],
	"digitalMarketing" : [
				{
				  "id": 1,
				  "to" : "/page",
				  "name": "Branding"
				},
				{
				  "id": 2,
				  "to" : "/page",
				  "name": "Editing"
				},
				{
				  "id": 3,
				  "to" : "/page",
				  "name": "SEO"
				},
				{
				  "id": 4,
				  "to" : "/page",
				  "name": "PPT/PPC"
				},
				{
				  "id": 5,
				  "to" : "/page",
				  "name": "Social Media"
				},
				
				{
				  "id": 6,
				  "to" : "/page",
				  "name": "Sales Optimization"
				},
				{
				  "id": 7,
				  "to" : "/page",
				  "name": "Conversion Rate Optimization"
				},
				{
				  "id": 8,
				  "to" : "/page",
				  "name": "Digital Advertising"
				},
				{
				  "id": 9,
				  "to" : "/page",
				  "name": "Email Marketing"
				},
				{
				  "id": 10,
				  "to" : "/page",
				  "name": "Let's discuss your requirements"
				}
			],
	"consulting" : [
				{
				  "id": 1,
				  "to" : "/page",
				  "name": "Technology Consulting and Support"
				},
				{
				  "id": 2,
				  "to" : "/page",
				  "name": "Web Project Manintanance and Support"
				},
				{
				  "id": 3,
				   "to" : "/page",
				  "name": "UI/UX Analysis"
				},
				{
				  "id": 4,
				  "to" : "/page",
				  "name": "Let's discuss your requirements"
				}					
			],
	"contact" : [
	
	]
}
  